Stol 2236 6  100% (3. mesto) 17 ['Celovška koča / Klagenfurter Hutte', 'Potoški Stol', 'Prešernova koča na Stolu', 'Svačica', 'Zabreška planina', 'Žirovniška planina']
Vrtača 2181 6  98% (50. mesto) 10 ['Bela peč / We', 'Koča pri izviru Završnice', 'Palec', 'Požgani rob', 'Rjavca / Rjautza', 'Srednji vrh', 'Svačica', 'Vgrizeva planina / Ogrisalm', 'Zelenjak', 'Žleb']
Prešernova koča na Stolu 2174 6  91% (188. mesto) 11 ['Celovška koča / Klagenfurter Hutte', 'Stol', 'Svačica', 'Zabreška planina']
Kepa 2143 6  97% (56. mesto) 6 ['Dovška Mala Kepa', 'Gubno', 'Lovska koča na Brvogih']
Ojstrc / Hochobir 2139 6  93% (147. mesto) 5 ['Kraguljše']
Košutnikov turn 2133 6  96% (75. mesto) 8 ['Mejnik', 'Planina Spodnja Dolga njiva', 'Tolsta Košuta', 'Tolsta Košuta']
Kordeževa glava (Peca) 2125 6  99% (22. mesto) 14 ['Alpengasthof Sieben', 'Dom na Peci', 'Končnikov vrh', 'Mala Peca', 'Velika glava', 'Votlina Kralja Matjaža']
Bistriška špica/Feistritzer Spitze 2113 6  75% (518. mesto) 9 ['Končnikov vrh', 'Veška kopa/Wackendorfer Spitze']
Končnikov vrh 2109 6  76% (494. mesto) 10 ['Alpengasthof Sieben', 'Bistriška špica/Feistritzer Spitze', 'Kordeževa glava', 'Velika glava']
Vajnež 2104 6  93% (149. mesto) 5 ['Bivak na Belščici', 'Mali vrh', 'Potoška planina', 'Potoški Stol', 'Valvasorjev dom pod Stolom']
Veliko Kladivo 2094 6  93% (141. mesto) 8 ['Kofce gora', 'Malo Kladivo', 'Planina Ilovica', 'Planina Pungrat', 'Škrbina', 'Zavetišče na planini Šija']
Veliki vrh (Košuta) 2088 6  98% (32. mesto) 6 ['Dom na Kofcah', 'Hajnževo sedlo', 'Kofce gora', 'Košutica', 'Lokovnikov Grintovec', 'Planina Korošica', 'Toplar']
Dovška Mala Kepa 2077 6  74% (541. mesto) 1 ['Gubno', 'Kepa', 'Lovska koča na Brvogih']
Velika glava 2077 6  62% (793. mesto) 1 ['Alpengasthof Sieben', 'Končnikov vrh', 'Kordeževa glava']
Veška kopa/Wackendorfer Spitze 2074 6  49% (1067. mesto) 4 ['Bistriška špica/Feistritzer Spitze', 'Planina Zgornja Luža', 'Veška planina / Wackendorfer Alm']
Begunjščica 2060 6  100% (9. mesto) 14 ['Begunjska Vrtača', 'Dom na Zelenici', 'Koča na planini Preva', 'Koča pri izviru Završnice', 'Koča Vrtača', 'Na Možeh', 'Planina Planinca', 'Roblekov dom na Begunjščici', 'Spodnji Plot', 'Vrh Ljubeljščice']
Tolsta Košuta - Vzhodni vrh 2057 6  78% (461. mesto) 1 ['Košutnikov turn', 'Mala Košuta', 'Planina Spodnja Dolga njiva', 'Planina Zgornja Dolga njiva', 'Plešivec', 'Tolsta Košuta']
Malo Kladivo 2036 7  73% (564. mesto) 3 ['Dom na Kofcah', 'Kofce gora', 'Planina Ilovica', 'Škrbina', 'Veliko Kladivo', 'Zavetišče na planini Šija']
Gubno 2035 7  80% (421. mesto) 4 ['Dovška Mala Kepa', 'Kepa', 'Lovska koča na Brvogih']
Palec 2026 7  81% (407. mesto) 1 ['Košutnikov turn', 'Mala Košuta', 'Planina Spodnja Dolga njiva', 'Planina Zgornja Dolga njiva', 'Plešivec', 'Tolsta Košuta']
Tolsta Košuta - Zahodni vrh 2026 7  88% (248. mesto) 2 ['Bela peč / We', 'Dom na Zelenici', 'Koča pri izviru Završnice', 'Na Možeh', 'Požgani rob', 'Rjavca / Rjautza', 'Srednji vrh', 'Sveta peč / Helige Wand', 'Vrtača', 'Zelenjak', 'Žleb']
Pungartska gora 2025 7  62% (802. mesto) 1 ['Cjajnik / ', 'Planina Pungrat', 'Škrbina', 'Tegoška planina']
Ovčji vrh (Kozjak) / Geissberg (Kosiak) 2024 7  83% (361. mesto) 2 ['Bela peč / We', 'Koča pri izviru Završnice', 'Na Možeh', 'Palec', 'Požgani rob', 'Rjavca / Rjautza', 'Srednji vrh', 'Sveta peč / Helige Wand', 'Vgrizeva planina / Ogrisalm', 'Vrtača', 'Žleb']
Zelenjak 2024 7  82% (385. mesto) 8 ['Celovška koča / Klagenfurter Hutte', 'Svačica', 'Vgrizeva planina / Ogrisalm']
Kravji vrh / Kuhberg 2017 7  5% (1985. mesto) 2 []
Mali vrh 2017 7  61% (818. mesto) 1 ['Bivak na Belščici', 'Hrašenska planina', 'Kamnitnik', 'Planina Seča', 'Potoška planina', 'Potoški Stol', 'Vajnež']
Potoški Stol 2014 7  82% (369. mesto) 5 ['Bivak na Belščici', 'Mali vrh', 'Potoška planina', 'Smolnik', 'Stol', 'Vajnež', 'Valvasorjev dom pod Stolom', 'Žirovniška planina']
Toplar 2000 7  84% (331. mesto) 3 ['Dom na Kofcah', 'Hajnževo sedlo', 'Kofce gora', 'Košutica', 'Lokovnikov Grintovec', 'Planina Ilovica', 'Veliki vrh', 'Zavetišče na planini Šija']
Begunjska Vrtača 1991 7  85% (309. mesto) 4 ['Begunjščica', 'Dom na Zelenici', 'Koča na planini Preva', 'Koča Vrtača', 'Na Možeh', 'Polna peč', 'Spodnji Plot', 'Vrh Ljubeljščice']
Košutica 1968 7  94% (127. mesto) 6 ['Hajnževo sedlo', 'Lokovnikov Grintovec', 'Planina Korošica', 'Toplar', 'Veliki vrh']
Kofce gora 1967 7  95% (100. mesto) 6 ['Dom na Kofcah', 'Malo Kladivo', 'Planina Ilovica', 'Toplar', 'Veliki vrh', 'Veliko Kladivo', 'Zavetišče na planini Šija']
Cjajnik / Lärchenturm 1965 7  84% (345. mesto) 3 ['Koča pod Košuto / Koschutahaus', 'Mejnik', 'Pungartska gora', 'Tegoška planina']
Svačica 1953 7  75% (517. mesto) 9 ['Celovška koča / Klagenfurter Hutte', 'Ovčji vrh', 'Prešernova koča na Stolu', 'Srednji vrh', 'Stol', 'Vgrizeva planina / Ogrisalm', 'Vrtača']
Struška 1944 7  90% (210. mesto) 8 ['Belska planina', 'Izvir Javornika', 'Planina Seča']
Trupejevo poldne 1931 7  93% (150. mesto) 4 []
Govca (Olševa) 1929 7  96% (84. mesto) 4 ['Potočka zijalka']
Setiče/Freiberg 1922 7  62% (806. mesto) 1 []
Žleb (Suho ruševje) 1916 7  71% (604. mesto) 1 ['Bela peč / We', 'Dom na Zelenici', 'Koča pri izviru Završnice', 'Na Možeh', 'Palec', 'Požgani rob', 'Rjavca / Rjautza', 'Srednji vrh', 'Sveta peč / Helige Wand', 'Vrtača', 'Zelenjak']
Dovška Baba 1891 7  96% (92. mesto) 5 ['Hruška planina', 'Hruški vrh', 'Koprivnjak/Kleiner Frauenkogel', 'Planina Dovška Rožca']
Škrbina 1869 7  66% (723. mesto) 1 ['Malo Kladivo', 'Planina Pungrat', 'Pungartska gora', 'Veliko Kladivo']
Murnovc 1866 7  37% (1329. mesto) 1 ['Kresišče', 'Maloško poldne / Mallestiger Mittagskogel', 'Mojstrovica', 'Ostra peč / Mallestiger Mittagskogel']
Kamnitnik 1858 8  48% (1090. mesto) 1 ['Bivak na Belščici', 'Hrašenska planina', 'Mali vrh', 'Planina Seča', 'Planina Stamare', 'Velika Boncla']
Grlovec/Ferlacher Horn 1840 8  63% (778. mesto) 4 []
Kresišče 1839 8  75% (531. mesto) 4 ['Maloško poldne / Mallestiger Mittagskogel', 'Mojstrovica', 'Murnovc', 'Ostra peč / Mallestiger Mittagskogel']
Golica 1835 8  99% (14. mesto) 9 ['Koča na Golici', 'Krvavka', 'Planina Možine']
Kraguljše 1828 8  29% (1484. mesto) 1 ['Kapelška koča / Eisenkappler Hutte', 'Obirska planina', 'Ojstrc / Hochobir']
Visoki vrh 1828 8  67% (683. mesto) 3 ['Mojstrovica']
Maloško poldne / Mallestiger Mittagskogel 1823 8  56% (931. mesto) 4 ['Kresišče', 'Murnovc', 'Ostra peč / Mallestiger Mittagskogel']
Mojstrovica 1816 8  68% (677. mesto) 2 ['Kresišče', 'Murnovc', 'Visoki vrh']
Lokovnikov Grintovec 1809 8  59% (858. mesto) 4 ['Hajnževo sedlo', 'Košutica', 'Planina Korošica', 'Toplar', 'Veliki vrh']
Ostra peč / Mallestiger Mittagskogel 1801 8  60% (845. mesto) 4 ['Kresišče', 'Maloško poldne / Mallestiger Mittagskogel', 'Murnovc']
Plešivec 1801 8  83% (366. mesto) 2 ['Mala Košuta', 'Mali Pečovnik', 'Planina Spodnja Dolga njiva', 'Planina Zgornja Dolga njiva', 'Tolsta Košuta', 'Tolsta Košuta', 'Veliki Pečovnik']
Srednji vrh 1796 8  75% (514. mesto) 3 ['Koča pri izviru Završnice', 'Palec', 'Roblekov dom na Begunjščici', 'Svačica', 'Vrtača', 'Zelenjak', 'Žleb']
Rjavca / Rjautza 1789 8  43% (1205. mesto) 2 ['Bela peč / We', 'Na Možeh', 'Palec', 'Požgani rob', 'Sveta peč / Helige Wand', 'Vrtača', 'Zelenjak', 'Žleb']
Krvavka 1784 8  53% (979. mesto) 1 ['Golica', 'Koča na Golici', 'Mala Golica', 'Markljev Rovt', 'Planina Možine', 'Ptičji vrh']
Na Možeh 1784 8  59% (852. mesto) 1 ['Begunjščica', 'Begunjska Vrtača', 'Dom na Zelenici', 'Koča pri izviru Završnice', 'Koča Vrtača', 'Palec', 'Rjavca / Rjautza', 'Spodnji Plot', 'Vrh Ljubeljščice', 'Zelenjak', 'Žleb']
Hruški vrh 1776 8  81% (406. mesto) 6 ['Dovška Baba', 'Hruška planina', 'Klek', 'Koprivnjak/Kleiner Frauenkogel', 'Planina Dovška Rožca', 'Rožca']
Pristovški Storžič / Kaerntner Storschitz 1759 8  88% (252. mesto) 4 []
Koprivnjak/Kleiner Frauenkogel 1754 8  53% (990. mesto) 2 ['Dovška Baba', 'Hruška planina', 'Hruški vrh', 'Klek', 'Rožca']
Klek 1753 8  85% (317. mesto) 7 ['Hruška planina', 'Hruški vrh', 'Jeseniška planina', 'Koprivnjak/Kleiner Frauenkogel', 'Rožca']
Bivak na Belščici 1750 8  65% (724. mesto) 2 ['Hrašenska planina', 'Kamnitnik', 'Mali vrh', 'Planina Seča', 'Planina Stamare', 'Potoška planina', 'Potoški Stol', 'Vajnež']
Zajčnik 1746 9  40% (1250. mesto) 3 ['Blekova planina', 'Jureževa planina', 'Tamarča', 'Vošca']
Mala Košuta 1740 9  68% (668. mesto) 2 ['Planina Zgornja Dolga njiva', 'Plešivec', 'Tolsta Košuta', 'Tolsta Košuta', 'Veliki Pečovnik']
Vošca 1737 9  87% (282. mesto) 6 ['Blekova planina', 'Grpišca', 'Jureževa planina', 'Tamarča', 'Zajčnik']
Mala Peca 1731 9  63% (777. mesto) 1 ['Dom na Peci', 'Kordeževa glava', 'Votlina Kralja Matjaža']
Tamarča 1728 9  33% (1412. mesto) 1 ['Grpišca', 'Jureževa planina', 'Vošca', 'Zajčnik']
Veliki Javornik (Ženiklovec) 1716 9  76% (500. mesto) 3 ['Dom pod Storžičem', 'Koča Pr Zdravc', 'Mali Javornik', 'Planina Javornik']
Vrh Ljubeljščice (Triangel) 1704 9  88% (261. mesto) 3 ['Begunjščica', 'Begunjska Vrtača', 'Dom na Zelenici', 'Koča pri izviru Završnice', 'Koča Vrtača', 'Na Možeh', 'Polna peč', 'Spodnji Plot']
Hajnževo sedlo 1701 9  73% (576. mesto) 1 ['Košutica', 'Lokovnikov Grintovec', 'Planina Korošica', 'Toplar', 'Veliki vrh']
Belska planina (Svečica) 1700 9  82% (373. mesto) 5 ['Izvir Javornika', 'Pusti Rovt', 'Struška']
Potočka zijalka 1700 9  85% (311. mesto) 1 ['Govca', 'Sveti Duh pod Olševo']
Uršlja gora (Plešivec) 1699 9  99% (21. mesto) 11 []
Planina Seča 1698 9  55% (950. mesto) 3 ['Bivak na Belščici', 'Hrašenska planina', 'Kamnitnik', 'Mali vrh', 'Planina Stamare', 'Struška']
Alpengasthof Siebenhütten 1693 9  41% (1229. mesto) 2 ['Končnikov vrh', 'Kordeževa glava', 'Velika glava']
Stegovnik 1692 9  91% (179. mesto) 8 ['Mali Javornik', 'Ruš']
Mali Javornik 1685 9  56% (915. mesto) 1 ['Stegovnik', 'Veliki Javornik']
Spodnji Plot 1682 9  52% (1005. mesto) 1 ['Begunjščica', 'Begunjska Vrtača', 'Dom na Zelenici', 'Koča pri izviru Završnice', 'Koča Vrtača', 'Na Možeh', 'Polna peč', 'Vrh Ljubeljščice']
Grpišca 1676 9  40% (1259. mesto) 1 ['Srnjak', 'Tamarča', 'Visoka Bavha', 'Vošca']
Hrašenska planina 1670 9  66% (720. mesto) 1 ['Dom na Peci', 'Kordeževa glava', 'Mala Peca']
Votlina Kralja Matjaža 1670 9  38% (1293. mesto) 2 ['Alničje', 'Bivak na Belščici', 'Izvir Javornika', 'Kamnitnik', 'Mala Boncla', 'Mali vrh', 'Planina Seča', 'Planina Stamare', 'Velika Boncla']
Veliki Pečovnik 1668 9  42% (1221. mesto) 1 ['Lovska koča Stanič', 'Mala Košuta', 'Mali Pečovnik', 'Partizanska bolnica Krtina', 'Planina Zgornja Dolga njiva', 'Plešivec', 'Veliki vrh nad Komatevro']
Bela peč / Weiße Wand 1665 9  37% (1314. mesto) 1 ['Palec', 'Požgani rob', 'Rjavca / Rjautza', 'Sveta peč / Helige Wand', 'Vrtača', 'Zelenjak', 'Žleb']
Dom na Peci 1665 9  86% (295. mesto) 3 ['Kordeževa glava', 'Mala Peca', 'Votlina Kralja Matjaža']
Celovška koča / Klagenfurter Hutte 1664 9  78% (464. mesto) 5 ['Ovčji vrh', 'Prešernova koča na Stolu', 'Stol', 'Svačica', 'Vgrizeva planina / Ogrisalm']
Kamnati vrh 1658 9  48% (1099. mesto) 2 ['Jerebikovec', 'Rekaršica', 'Visoka Bavha']
Roblekov dom na Begunjščici 1657 9  98% (49. mesto) 9 ['Begunjščica', 'Koča pri izviru Završnice', 'Planina Planinca', 'Srednji vrh', 'Tomčeva koča na Poljški planini']
Virnikov Grintovec 1654 9  90% (204. mesto) 4 ['Roblekova planina', 'Žmitkov špic']
Planina Dovška Rožca 1650 10  77% (490. mesto) 5 ['Dovška Baba', 'Hruški vrh', 'Lovska koča na Brvogih']
Visoka Bavha 1650 10  4% (2003. mesto) 1 ['Grpišca', 'Jerebikovec', 'Kamnati vrh', 'Rekaršica', 'Srnjak']
Topica/Topitza 1649 10  43% (1189. mesto) 2 []
Mala Golica 1646 10  41% (1232. mesto) 2 ['Koča na Golici', 'Krvavka', 'Markljev Rovt', 'Ptičji vrh', 'Pusti Rovt']
Mali Pečovnik 1640 10  29% (1496. mesto) 1 ['Lovska koča Stanič', 'Partizanska bolnica Krtina', 'Planina Zgornja Dolga njiva', 'Plešivec', 'Veliki Pečovnik', 'Veliki vrh nad Komatevro']
Veliki vrh nad Komatevro 1634 10  30% (1472. mesto) 1 ['Lovska koča Stanič', 'Mali Pečovnik', 'Močnikova planina', 'Partizanska bolnica Krtina', 'Veliki Pečovnik']
Blekova planina 1629 10  50% (1041. mesto) 3 ['Jureževa planina', 'Vošca', 'Zajčnik']
Macna / Matzen 1627 10  25% (1564. mesto) 2 ['Sveta Ana']
Jerebikovec 1621 10  58% (881. mesto) 1 ['Kamnati vrh', 'Rekaršica', 'Visoka Bavha']
Ruš 1614 10  33% (1405. mesto) 4 ['Bukovec', 'Lovska koča Stanič', 'Močnikova planina', 'Partizanska bolnica Krtina', 'Stegovnik']
Sveta peč / Helige Wand 1613 10  27% (1526. mesto) 1 ['Bela peč / We', 'Palec', 'Požgani rob', 'Rjavca / Rjautza', 'Zelenjak', 'Žleb']
Žingarica/Singerberg 1589 10  41% (1237. mesto) 1 ['Soteska Čepa/Tscheppaschlucht']
Rožca 1587 10  74% (537. mesto) 5 ['Hruška planina', 'Hruški vrh', 'Jeseniška planina', 'Klek', 'Koprivnjak/Kleiner Frauenkogel']
Bela peč 1583 10  80% (416. mesto) 6 ['Koča Pr Zdravc', 'Planina Javornik', 'Planina Spodnja Konjščica', 'Planina Zgornja Konjščica', 'Spominska plošča Jožeta Rozmana']
Koča na Golici 1582 10  91% (197. mesto) 5 ['Golica', 'Krvavka', 'Mala Golica', 'Planina Možine']
Planina Zgornja Dolga njiva 1580 10  65% (741. mesto) 2 ['Mala Košuta', 'Mali Pečovnik', 'Planina Spodnja Dolga njiva', 'Plešivec', 'Tolsta Košuta', 'Tolsta Košuta', 'Veliki Pečovnik']
Planina Zgornja Konjščica 1578 10  35% (1371. mesto) 2 ['Bela peč', 'Koča Pr Zdravc', 'Planina Spodnja Konjščica', 'Spominska plošča Jožeta Rozmana']
Psinski vrh/Sinacher Gupf  1577 10  38% (1306. mesto) 2 []
Planina Zgornja Luža 1573 10  22% (1642. mesto) 2 ['Planina Luža', 'Veška kopa/Wackendorfer Spitze']
Vgrizeva planina / Ogrisalm 1569 10  35% (1360. mesto) 2 ['Celovška koča / Klagenfurter Hutte', 'Ovčji vrh', 'Svačica', 'Vrtača', 'Zelenjak']
Veška planina / Wackendorfer Alm 1568 10  22% (1634. mesto) 1 ['Veška kopa/Wackendorfer Spitze']
Planina Korošica 1554 10  96% (80. mesto) 2 ['Hajnževo sedlo', 'Košutica', 'Lokovnikov Grintovec', 'Veliki vrh']
Rekaršica 1554 10  33% (1411. mesto) 2 ['Jerebikovec', 'Kamnati vrh', 'Visoka Bavha']
Kapelška koča / Eisenkappler Hutte 1553 10  46% (1128. mesto) 4 ['Kraguljše', 'Obirska planina']
Planina Javornik 1550 10  74% (546. mesto) 3 ['Bela peč', 'Dom pod Storžičem', 'Koča Pr Zdravc', 'Spominska plošča Jožeta Rozmana', 'Veliki Javornik']
Ptičji vrh 1550 10  64% (752. mesto) 2 ['Krvavka', 'Mala Golica', 'Markljev Rovt', 'Pusti Rovt']
Dom na Zelenici 1536 10  95% (99. mesto) 5 ['Begunjščica', 'Begunjska Vrtača', 'Koča pri izviru Završnice', 'Koča Vrtača', 'Na Možeh', 'Palec', 'Spodnji Plot', 'Vrh Ljubeljščice', 'Žleb']
Sveta Ana (Macna) / St. Anna (Matzen) 1536 10  24% (1592. mesto) 1 ['Macna / Matzen']
Zavetišče na planini Šija 1528 10  81% (400. mesto) 2 ['Dom na Kofcah', 'Kofce gora', 'Malo Kladivo', 'Planina Dolžanka', 'Planina Ilovica', 'Toplar', 'Veliko Kladivo']
Mejnik 1517 10  27% (1532. mesto) 3 ['Cjajnik / ', 'Koča pod Košuto / Koschutahaus', 'Košutnikov turn']
Požgani rob 1513 10  26% (1554. mesto) 1 ['Bela peč / We', 'Palec', 'Rjavca / Rjautza', 'Sveta peč / Helige Wand', 'Vrtača', 'Zelenjak', 'Žleb']
Peč - Tromeja 1508 10  94% (128. mesto) 4 ['Dom na Tromeji', 'Drei', 'Kopa / Monte Coppa', 'Marija Snežna']
Planica 1508 10  59% (864. mesto) 3 ['Borovje', 'Rovt Vrse']
Bukovec 1506 10  55% (937. mesto) 1 ['Močnikova planina', 'Partizanska bolnica Krtina', 'Ruš']
Polna peč 1503 10  57% (901. mesto) 2 ['Begunjska Vrtača', 'Koča na Ljubelju', 'Koča Vrtača', 'Spodnji Plot', 'Vrh Ljubeljščice']
Lipševa vrata 1500 10  27% (1523. mesto) 1 []
Kopa / Monte Coppa 1496 10  47% (1101. mesto) 2 ['Dom na Tromeji', 'Drei', 'Marija Snežna', 'Peč']
Dom na Kofcah 1488 10  39% (1281. mesto) 1 ['Blekova planina', 'Tamarča', 'Vošca', 'Zajčnik']
Jureževa planina 1488 10  99% (27. mesto) 12 ['Kofce gora', 'Malo Kladivo', 'Planina Dolžanka', 'Planina Ilovica', 'Toplar', 'Veliki vrh', 'Zavetišče na planini Šija']
Borovje 1476 10  72% (578. mesto) 3 ['Erjavčev rovt', 'Lovska koča na Brvogih', 'Planica', 'Rovt Vrse']
Planina Ilovica 1462 10  30% (1464. mesto) 2 ['Dom na Kofcah', 'Kofce gora', 'Malo Kladivo', 'Planina Dolžanka', 'Toplar', 'Veliko Kladivo', 'Zavetišče na planini Šija']
Planina Spodnja Konjščica 1451 10  64% (745. mesto) 2 ['Bela peč', 'Planina Zgornja Konjščica', 'Spominska plošča Jožeta Rozmana']
Spominska plošča Jožeta Rozmana 1450 12  27% (1538. mesto) 1 ['Bela peč', 'Dom pod Storžičem', 'Koča Pr Zdravc', 'Planina Javornik', 'Planina Spodnja Konjščica', 'Planina Zgornja Konjščica']
Koča Pr Zdravc 1448 12  48% (1092. mesto) 3 ['Bela peč', 'Planina Javornik', 'Planina Zgornja Konjščica', 'Spominska plošča Jožeta Rozmana', 'Veliki Javornik']
Planina Pungrat 1447 12  58% (875. mesto) 2 ['Pungartska gora', 'Škrbina', 'Tegoška planina', 'Veliko Kladivo']
Tegoška planina 1430 12  50% (1044. mesto) 3 ['Cjajnik / ', 'Planina Pungrat', 'Pungartska gora']
Koča pri izviru Završnice 1425 12  90% (215. mesto) 2 ['Begunjščica', 'Dom na Zelenici', 'Na Možeh', 'Palec', 'Roblekov dom na Begunjščici', 'Spodnji Plot', 'Srednji vrh', 'Vrh Ljubeljščice', 'Vrtača', 'Zelenjak', 'Žleb']
Lovska koča na Brvogih 1425 12  39% (1289. mesto) 1 ['Borovje', 'Dovška Mala Kepa', 'Erjavčev rovt', 'Gubno', 'Kepa', 'Planina Dovška Rožca']
Dreiländereck Hütte 1423 12  64% (760. mesto) 1 ['Dom na Tromeji', 'Kopa / Monte Coppa', 'Peč']
Plešivška kopa (Kozarnica) 1414 12  19% (1699. mesto) 1 []
Planina Spodnja Dolga njiva 1400 12  61% (823. mesto) 5 ['Alničje', 'Bivak na Belščici', 'Hrašenska planina', 'Izvir Javornika', 'Kamnitnik', 'Mala Boncla', 'Planina Seča', 'Potoška planina', 'Velika Boncla']
Planina Stamare 1400 12  78% (470. mesto) 2 ['Košutnikov turn', 'Planina Zgornja Dolga njiva', 'Plešivec', 'Tolsta Košuta', 'Tolsta Košuta']
Jeseniška planina 1380 12  46% (1133. mesto) 2 ['Hruška planina', 'Klek', 'Planina Možine', 'Rožca']
Hruška planina 1378 12  54% (972. mesto) 2 ['Dovška Baba', 'Hruški vrh', 'Jeseniška planina', 'Klek', 'Koprivnjak/Kleiner Frauenkogel', 'Rožca', 'Slapovi Dobršnik']
Koča na Ljubelju 1370 12  89% (231. mesto) 2 ['Koča Vrtača', 'Polna peč']
Planina Možine 1352 12  28% (1501. mesto) 1 ['Golica', 'Jeseniška planina', 'Koča na Golici', 'Krvavka']
Španov vrh 1334 12  73% (561. mesto) 6 ['Mirca', 'Smučarski dom Črni vrh']
Koča na planini Preval-a 1311 12  95% (109. mesto) 4 ['Begunjščica', 'Begunjska Vrtača', 'Tominčev slap']
Pusti Rovt 1296 12  55% (936. mesto) 2 ['Belska planina', 'Mala Golica', 'Markljev Rovt', 'Ptičji vrh']
Koča Vrtača 1288 12  72% (589. mesto) 1 ['Begunjščica', 'Begunjska Vrtača', 'Dom na Zelenici', 'Koča na Ljubelju', 'Na Možeh', 'Polna peč', 'Spodnji Plot', 'Vrh Ljubeljščice']
Roblekova planina 1284 12  57% (892. mesto) 4 ['Virnikov Grintovec']
Koča pod Košuto / Koschutahaus 1280 12  51% (1020. mesto) 1 ['Mali Pečovnik', 'Močnikova planina', 'Partizanska bolnica Krtina', 'Ruš', 'Veliki Pečovnik', 'Veliki vrh nad Komatevro']
Lovska koča Stanič 1280 12  37% (1315. mesto) 3 ['Cjajnik / ', 'Mejnik']
Golarjeva peč 1276 12  30% (1462. mesto) 1 ['Sveti Duh pod Olševo', 'Železna']
Marija Snežna (Kavalar) / Madonna della Neve 1275 12  26% (1550. mesto) 1 ['Bukovec', 'Lovska koča Stanič', 'Partizanska bolnica Krtina', 'Ruš', 'Veliki vrh nad Komatevro']
Močnikova planina 1275 12  50% (1043. mesto) 1 ['Kopa / Monte Coppa', 'Peč']
Obirska planina 1272 12  40% (1249. mesto) 2 ['Kapelška koča / Eisenkappler Hutte', 'Kraguljše']
Potoška planina 1270 12  76% (507. mesto) 4 ['Ajdna', 'Bivak na Belščici', 'Mali vrh', 'Planina Stamare', 'Potoški Stol', 'Smolnik', 'Vajnež', 'Valvasorjev dom pod Stolom', 'Žirovniška planina']
Vetrh vrh 1268 12  19% (1695. mesto) 1 ['Stegovniški slap']
Markljev Rovt 1250 13  24% (1591. mesto) 2 ['Planina Zgornja Luža']
Planina Luža 1250 13  45% (1148. mesto) 1 ['Krvavka', 'Mala Golica', 'Ptičji vrh', 'Pusti Rovt']
Velika Boncla 1241 13  2% (2045. mesto) 1 ['Alničje', 'Dom Pristava v Javorniškem Rovtu', 'Hrašenska planina', 'Izvir Javornika', 'Javorniški slapovi', 'Kamnitnik', 'Mala Boncla', 'Planina Stamare']
Sveti Duh pod Olševo 1232 13  49% (1062. mesto) 1 ['Golarjeva peč', 'Hribarska', 'Potočka zijalka', 'Železna']
Božičev vrh / Boschitzberg 1228 13  39% (1284. mesto) 1 []
Zabreška planina 1225 13  63% (782. mesto) 1 ['Prešernova koča na Stolu', 'Slap pod Gozdašnico', 'Slap pod Kurico', 'Smolnik', 'Stol', 'Sveti Lovrenc nad Zabreznico', 'Turška jama v Gozdašnici', 'Valvasorjev dom pod Stolom', 'Žirovniška planina']
Rovt Vrse 1200 13  54% (967. mesto) 3 ['Borovje', 'Planica']
Žirovniška planina 1200 13  66% (708. mesto) 2 ['Potoška planina', 'Potoški Stol', 'Slap pod Gozdašnico', 'Slap pod Kurico', 'Smolnik', 'Stol', 'Turška jama v Gozdašnici', 'Valvasorjev dom pod Stolom', 'Zabreška planina']
Brdo (Plezališče pod Golico) 1192 13  3% (2037. mesto) 1 []
Valvasorjev dom pod Stolom 1181 13  95% (114. mesto) 4 ['Ajdna', 'Potoška planina', 'Potoški Stol', 'Slap pod Gozdašnico', 'Smolnik', 'Turška jama v Gozdašnici', 'Vajnež', 'Zabreška planina', 'Žirovniška planina']
Tomčeva koča na Poljški planini 1180 13  77% (489. mesto) 4 ['Dom v Dragi', 'Planina Planinca', 'Roblekov dom na Begunjščici']
Smučarski dom Črni vrh 1156 13  38% (1299. mesto) 3 ['Kapelica s', 'Mirca', 'Španov vrh']
Alničje 1145 14  85% (325. mesto) 2 ['Drei', 'Kopa / Monte Coppa', 'Peč']
Dom na Tromeji 1145 14  29% (1485. mesto) 2 ['Hrašenska planina', 'Javorniški slapovi', 'Mala Boncla', 'Malnež', 'Planina Stamare', 'Velika Boncla']
Hribarska (Huda) zijalka 1140 14  26% (1548. mesto) 1 ['Sveti Duh pod Olševo']
Planina Planinca 1136 14  67% (695. mesto) 1 ['Begunjščica', 'Dom v Dragi', 'Roblekov dom na Begunjščici', 'Tomčeva koča na Poljški planini']
Mala Boncla (Bavha) 1131 14  34% (1387. mesto) 1 ['Alničje', 'Dom Pristava v Javorniškem Rovtu', 'Hrašenska planina', 'Izvir Javornika', 'Javorniški slapovi', 'Planina Stamare', 'Velika Boncla']
Žmitkov špic 1124 14  51% (1028. mesto) 1 ['Virnikov Grintovec']
Železna (Kisla) voda 1115 14  45% (1156. mesto) 1 ['Golarjeva peč', 'Sveti Duh pod Olševo']
Zavetišče na Kalu 1112 14  39% (1283. mesto) 3 ['Veliki vrh nad Završnikom']
Erjavčev rovt (Planina Mlinca) 1105 14  4% (2007. mesto) 2 ['Borovje', 'Lovska koča na Brvogih']
Partizanska bolnica Krtina 1100 14  39% (1270. mesto) 1 ['Bukovec', 'Lovska koča Stanič', 'Mali Pečovnik', 'Močnikova planina', 'Ruš', 'Veliki Pečovnik', 'Veliki vrh nad Komatevro']
Jelenkamen 1096 14  71% (617. mesto) 5 ['Dom Pristava v Javorniškem Rovtu', 'Javorniški slapovi', 'Kalvarija nad Jesenicami']
Planina Dolžanka 1090 14  38% (1303. mesto) 1 ['Dom na Kofcah', 'Planina Ilovica', 'Zavetišče na planini Šija']
Andrejev dom na Slemenu 1086 14  82% (383. mesto) 3 ['Sveti Vid pod Jernejevim vrhom']
Smolnik 1075 14  71% (607. mesto) 2 ['Ajdna', 'Potoška planina', 'Potoški Stol', 'Slap pod Gozdašnico', 'Sveti Lovrenc nad Zabreznico', 'Turška jama v Gozdašnici', 'Valvasorjev dom pod Stolom', 'Zabreška planina', 'Žirovniška planina']
Sveti Vid pod Jernejevim vrhom 1075 14  26% (1560. mesto) 1 ['Andrejev dom na Slemenu']
Koča na Naravskih ledinah 1072 14  53% (995. mesto) 2 []
Ajdna 1046 14  88% (245. mesto) 7 ['Gradišče nad Sotesko', 'Potoška planina', 'Smolnik', 'Turška jama v Gozdašnici', 'Valvasorjev dom pod Stolom']
Mirca 1025 14  3% (2043. mesto) 2 ['Kalvarija nad Jesenicami', 'Kapelica s', 'Smučarski dom Črni vrh', 'Španov vrh']
Veliki Mošenik / Große Muschenig 1021 14  18% (1716. mesto) 2 ['Podgorska planina / Maria Elender Alm']
Izvir Javornika 1000 14  39% (1279. mesto) 1 ['Belska planina', 'Dom Pristava v Javorniškem Rovtu', 'Hrašenska planina', 'Javorniški slapovi', 'Mala Boncla', 'Planina Stamare', 'Struška', 'Velika Boncla']
Dom Pristava v Javorniškem Rovtu 975 14  75% (515. mesto) 2 ['Izvir Javornika', 'Javorniški slapovi', 'Jelenkamen', 'Mala Boncla', 'Velika Boncla']
Veliki vrh nad Završnikom 968 14  30% (1458. mesto) 1 ['Kamnjek', 'Zavetišče na Kalu']
Srnjak 955 14  48% (1082. mesto) 1 ['Grpišca', 'Visoka Bavha']
Podgorska planina / Maria Elender Alm 930 15  17% (1732. mesto) 1 ['Veliki Mošenik / Gr']
Fričev vrh 881 15  33% (1409. mesto) 2 ['Časov vrh', 'Črepič', 'Sveti Rupert']
Kamnjek 873 15  57% (908. mesto) 1 ['Veliki vrh nad Završnikom']
Stegovniški slap 872 15  23% (1606. mesto) 1 ['Vetrh vrh']
Malnež 846 15  23% (1608. mesto) 1 ['Alničje', 'Gradišče nad Sotesko', 'Javorniški slapovi']
Turška jama v Gozdašnici 835 15  35% (1368. mesto) 1 ['Ajdna', 'Slap pod Gozdašnico', 'Slap pod Kurico', 'Smolnik', 'Sveti Lovrenc nad Zabreznico', 'Valvasorjev dom pod Stolom', 'Zabreška planina', 'Žirovniška planina']
Časov vrh 821 15  18% (1712. mesto) 1 ['Črepič', 'Fričev vrh', 'Sveti Rupert']
Sveti Rupert (Završe) 815 15  22% (1628. mesto) 1 ['Časov vrh', 'Fričev vrh', 'Sveti Vid']
Sveti Vid (Završe) 808 15  23% (1624. mesto) 1 ['Sveti Rupert']
Poštarski dom pod Plešivcem 805 15  70% (637. mesto) 1 []
Slapovi Dobršnik 800 15  43% (1188. mesto) 1 ['Hruška planina']
Črepič 798 15  32% (1433. mesto) 2 ['Časov vrh', 'Fričev vrh']
Kalvarija nad Jesenicami 784 15  34% (1389. mesto) 1 ['Jelenkamen', 'Mirca']
Kozjak nad Slovenskim Javornikom 766 15  19% (1704. mesto) 2 []
Slap pod Gozdašnico 760 15  2% (2053. mesto) 1 ['Slap pod Gozdašnico', 'Sveti Lovrenc nad Zabreznico', 'Turška jama v Gozdašnici', 'Zabreška planina', 'Žirovniška planina']
Slap pod Kurico 760 15  3% (2034. mesto) 1 ['Slap pod Kurico', 'Smolnik', 'Sveti Lovrenc nad Zabreznico', 'Turška jama v Gozdašnici', 'Valvasorjev dom pod Stolom', 'Zabreška planina', 'Žirovniška planina']
Kapelica sv. Barbare na Pejcah 750 15  62% (801. mesto) 1 ['Breška planina', 'Dobrča', 'Koča na Dobrči', 'Koča na planini Preva', 'Lešanska planina', 'Šentanski vrh']
Soteska Čepa/Tscheppaschlucht 750 15  22% (1633. mesto) 1 ['Mirca', 'Smučarski dom Črni vrh']
Tominčev slap 750 15  62% (797. mesto) 1 ['Žingarica/Singerberg']
Gradišče nad Sotesko (Soteska) 724 14  2% (2063. mesto) 1 ['Ajdna', 'Malnež']
Javorniški slapovi 690 14  3% (2024. mesto) 1 ['Alničje', 'Dom Pristava v Javorniškem Rovtu', 'Izvir Javornika', 'Jelenkamen', 'Mala Boncla', 'Malnež', 'Velika Boncla']
Dom v Dragi 689 14  54% (970. mesto) 1 ['Grad Kamen', 'Planina Planinca', 'Tomčeva koča na Poljški planini']
Mornova zijalka 550 14  47% (1106. mesto) 1 []
